id                                    ,name                ,type
"b400706b-bcbd-56bc-b1fc-90c8110970c6","Alexander Perkins" ,TYPE2
"8eedaf9e-67bb-5b63-97f5-66e3997bd65f","Dollie Collier"    ,TYPE1
"cbecd2cb-6dbc-593f-b470-"            ,"Emily Caldwell"    ,TYPE3
"85988f3c-527e-54bd-b9ad-a11315122385","Ida Powell"        ,TYPE2
"352a9251-c2d5-5f04-99b4-48cc89c060bd","Allen Estrada"     ,TYPE3
"8861c802-2b07-5ebe-9904-672d1b9aa84d","Lee Owen"          ,TYPE4
"acbac31a-94c9-55e5-877a-d4200bc03a1f","Craig Stone"       ,TYPE1
"94fb6b2c-2e9e-5c42-ab70-96062145c196","Adele Wilson"      ,TYPE4
"21574350-a370-5c25-bc74-071121d5922d","Carrie Rice"       ,TYPE1
"a8103a1d-4e84-5a24-8f0d-c3d692288569","Vernon Jones"      ,TYPE1
"6e75ad34-5f13-5ef2-a0cf-bc915589ec64","Andrew Fernandez"  ,TYPE4
"80f49363-3e00-587d-beb3-fe9482ff6bd0","Sean Riley"        ,TYPE4
"3ac4379f-bffc-59db-b1a1-85d1f617e256","Eleanor Silva"     ,TYPE2
"b4006eff-59bd-56aa-98da-5c06a34486f6","Adele Patterson"   ,TYPE3
"d7e65535-9a6d-5e68-95bc-975cf03091fe","Isaac Wheeler"     ,TYPE4
"351f1071-e654-514f-9430-b47621a90fe2","Georgie Rodgers"   ,TYPE4
"04281a47-826a-5e9e-b740-5c8b56633d8f","Minnie Larson"     ,TYPE2
"7fd27b0d-3e00-513e-852f-a5cc98059abe","Jeanette Arnold"   ,TYPE4
"3bd85844-7765-5a91-a472-ec3a22f59cc8","Clyde Pearson"     ,TYPE4
"5825c087-cfeb-52ce-92b9-577c8e69173a","Adelaide Stevens"  ,TYPE1
"fc426a23-133e-5d1e-8b1f-72e678068f68","Jack Becker"       ,TYPE1
"b51bc9cb-8ce5-5641-b055-17db7e2e5ab6","Cole Alvarado"     ,TYPE4
"f2bf4082-b25c-51ee-b1e2-c05e1134b823","Ralph Gross"       ,TYPE4
"c17f6c3e-9ccf-5213-b102-ad4a395cc665","Landon Briggs"     ,TYPE2
"cf139d8e-ca55-5613-a4ee-5350a66cd38d","Charles Jones"     ,TYPE2
"219d3acb-ff15-5c5b-87fa-b1a5def2f4ac","Beulah Ryan"       ,TYPE3
"787484a4-0246-556a-98d7-c8255cdff25a","Jimmy Floyd"       ,TYPE1
"816ef83d-51d5-51ab-ad4e-03c12ba24c1f","Genevieve Walsh"   ,TYPE2
"8aeb248d-9e26-5d50-bfae-0738470aa7e6","Calvin Roberson"   ,TYPE2
"a749e71f-39f2-5afe-a670-f0addbb035e2","Leo Harris"        ,TYPE3
"fb6a95a2-c345-522b-98ac-aec05ce50eea","Howard Perkins"    ,TYPE2
"ecc3bde0-369d-5470-8d55-ab19638be128","Marie Long"        ,TYPE3
"da8e756f-e6e1-5910-9394-e1b9b89d8b6e","Sue Mitchell"      ,TYPE3
"e03ba41d-5ce3-5900-ac80-834cf498a8ae","Nelle Ward"        ,TYPE4
"507531dd-1d55-5a1c-924b-b520f5e44d5c","Vincent Sullivan"  ,TYPE1
"b4c9cba0-1138-56d8-90ca-0ab6558872b6","Abbie Edwards"     ,TYPE1
"b5bc8e8c-7fe8-51c6-8cc3-0436844b4611","Lida Reyes"        ,TYPE4
"6df908e5-dc84-50eb-83d7-a31f4bddb52b","Vernon Mason"      ,TYPE4
"9528b3fe-de41-5aaf-b451-298fbbd576b5","Craig Watkins"     ,TYPE3
"4989b7d5-c6ce-5d48-ad2d-8ef6f74c61d6","Bradley Cox"       ,TYPE3
"4797060c-d62d-592d-ab3b-adff6e1f0277","Scott Weber"       ,TYPE2
"3c9163ba-e953-5e9a-a04e-0c1b0dabccff","Wesley Garrett"    ,TYPE3
"8bf30c9e-9b20-55bf-9233-ae9047365640","Justin Parsons"    ,TYPE2
"01f43e2e-97f0-57c9-a197-994b8bdf9108","Barry Simmons"     ,TYPE4
"86243e08-b594-5d33-9566-a49d9122cf03","Jason Burns"       ,TYPE2
"b9e7abb6-f400-5332-b696-649d934c3627","Erik Rodriguez"    ,TYPE4
"992d464f-ae79-519a-850c-cf0f81a66b67","Linnie Gonzales"   ,TYPE4
"345cd218-d6bd-5ae9-baf6-ac7811bee535","Carlos Morton"     ,TYPE3
"ac08a358-9458-5d3f-aaf3-896c0bb06c2c","Louisa Klein"      ,TYPE4
"18656446-2f30-543a-85c0-ee42a1a842cd","Ethan Rose"        ,TYPE1
"33353a1c-8b78-576b-b9fb-a89a923bb31a","Alvin Aguilar"     ,TYPE2
"9b9dfec7-96e0-5422-bcfd-1b1faa7699df","Jacob Jensen"      ,TYPE1
"cb7ee42d-c34a-5fac-8ac5-872972891950","Amy Webb"          ,TYPE2
"cd9fb521-6e5e-54c5-9cb6-707f1f99ff34","Estelle Wright"    ,TYPE4
"cfdd8ccd-342e-52a1-ad50-5d9b17522a9f","Katherine Mendoza" ,TYPE3
"6fa77407-f7e2-5495-81e3-826b23947ee2","Laura Cannon"      ,TYPE2
"6a30bb08-dbf6-5648-9221-e44ece143277","Nathaniel Garrett" ,TYPE3
"c931f0fb-0c06-59e4-8fac-ec23551ffb39","Katharine Ford"    ,TYPE2
"ab429c7e-604e-5bdb-9f88-d196ec829db8","Jerome Matthews"   ,TYPE2
"f6c8b4cf-1b78-56a8-9773-698b8116a20b","Emily Brown"       ,TYPE4
"b6c1fbb2-61af-5068-9da0-b3af64a1ce8d","Elijah Boyd"       ,TYPE4
"b0604568-d093-539f-8591-b6fc505abf36","Rena Morgan"       ,TYPE1
"02870516-dd5b-5172-9aca-26eea91ea124","Nell Moran"        ,TYPE1
"4386267b-dd15-5877-a98f-7d1a45d6a7cb","Carrie Ramsey"     ,TYPE3
"08b08bc3-c11f-537f-910e-5f49dab9174e","Alma Dixon"        ,TYPE2
"6da918e1-f808-5d9b-ae00-e2bffabd5b43","Gary Glover"       ,TYPE3
"912129e0-5647-5ea2-94b9-0d3da7dd2c32","Lida Carroll"      ,TYPE2
"f453347c-21c0-5995-9f3a-dc04a829fb3d","Keith Cook"        ,TYPE3
"e4939db0-3184-5cee-897c-f73d3feeff67","Louis Sutton"      ,TYPE1
"5a7e0dd0-15b3-54e2-acd4-506beedaa4a2","Curtis Adkins"     ,TYPE2
"96d85032-3fc0-5896-b4ce-7ac02c9350f7","Lelia Glover"      ,TYPE1
"425161e4-a523-52e3-a661-3d7360992e61","Ricardo Stevenson" ,TYPE2
"b81f6ad6-f511-5d81-8358-40b6f897ac46","Richard Price"     ,TYPE3
"f4a8e726-0549-5abf-ad7f-c8ff214c6f88","Cameron Williams"  ,TYPE3
"47de7f60-4aa1-5c06-a1f4-e07588ae504f","Catherine Larson"  ,TYPE1
"2d7d3ae3-6e3c-5bf4-bd07-c42ea228da7d","Nellie Wilson"     ,TYPE2
"6653eff0-502a-5273-986a-7243e75f97f9","Alexander Garrett" ,TYPE3
"9fc1e803-bd31-5f15-8d7e-7f905bbeff52","Leila Newman"      ,TYPE2
"2a1ab5b7-de53-569c-aa80-ecebc01a1825","Christian Sharp"   ,TYPE4
"dec5fe0e-7a4b-55e8-9fe2-c210bb858dc4","Curtis Caldwell"   ,TYPE2
"1cdf554c-c980-5779-b7de-6798a3b80dca","Ella Kelley"       ,TYPE3
"eb2c5a61-c33c-5677-8852-28f689078c36","Eliza Flores"      ,TYPE3
"5d9a8690-0fa5-5481-bc53-483df2c1fb74","Ian Munoz"         ,TYPE1
"90afacd4-eb8f-5efe-8728-705d97cc7cff","Charlotte Chambers",TYPE3
"29aa78ba-4cfd-57c7-ba88-279ab996bff6","Sean Wells"        ,TYPE2
"4fd86dbb-328b-59ea-8e81-a49b83a37147","Nannie Ramirez"    ,TYPE3
"9daf63b8-ef0d-5dbb-ae0a-499f26727a4d","Sam Bell"          ,TYPE3
"af88a04e-7f42-5064-bff9-3870ec0f1ec6","Rena Thornton"     ,TYPE1
"5a1a13d4-c8f6-555a-b73e-29d18b4911b9","Flora Fletcher"    ,TYPE2
"b35cc2b5-e0ad-5f3f-8dab-b15df2ff36c3","Sophia Barber"     ,TYPE4
"82bdac8e-3f41-5b6b-adf7-17e5cb35541c","Lilly Daniels"     ,TYPE2
"00417b1d-4a90-5539-ac54-7dcc315e0a8a","Esther Dunn"       ,TYPE1
"096bf72d-1727-55ee-980c-5705f67a4759","Philip Moran"      ,TYPE4
"70f76eb1-7874-59bf-b6ec-accb415384d3","Myrtie Reed"       ,TYPE3
"677ecf5c-f718-565b-ad7d-accf7ce3095a","Daniel Ball"       ,TYPE3
"f097da00-6f5a-5a65-a487-b14264fbb083","Loretta Clark"     ,TYPE3
"f8a07f2a-5e27-51d9-850c-7d171b4d1cba","Eugenia Bryan"     ,TYPE1
"e99ac331-be89-5a68-91ea-0dd167f9311f","Joseph Guzman"     ,TYPE3
"cccfa853-2f45-5dcc-9533-3f55cf4f9015","Cora Norris"       ,TYPE2
"c38def27-851c-5719-ac4b-dd5366121a91","Blanche Atkins"    ,TYPE4